ods_edw/ODStoEDW_MoviesLoad$Options.class
ods_edw/ODStoEDW_MoviesCDCSink.class
ods_edw/ODStoEDW_MoviesCDCSource$1.class
ods_edw/ODStoEDW_MoviesLoad$1.class
ods_edw/ODStoEDW_MoviesCDCSource.class
ods_edw/ODStoEDW_MoviesCDCSink$PubSubToGCSOptions.class
ods_edw/EDWtoODS_InsightsCDCSink.class
ods_edw/EDWtoODS_InsightsCDCSource$1.class
ods_edw/ODStoEDW_MoviesLoad.class
ods_edw/EDWtoODS_InsightsCDCSource$Options.class
ods_edw/ODStoEDW_MoviesCDCSink$1.class
ods_edw/EDWtoODS_InsightsCDCSource.class
